<?xml version="1.0" encoding="UTF-8"?>
<svg xmlns="http://www.w3.org/2000/svg" xmlns:xlink="http://www.w3.org/1999/xlink" width="29pt" height="29pt" viewBox="0 0 29 29" version="1.1">
<g id="surface1">
<path style=" stroke:none;fill-rule:nonzero;fill:rgb(25.882353%,10.196078%,37.254902%);fill-opacity:1;" d="M 29 14.5 C 29 22.507812 22.507812 29 14.5 29 C 6.492188 29 0 22.507812 0 14.5 C 0 6.492188 6.492188 0 14.5 0 C 22.507812 0 29 6.492188 29 14.5 Z M 29 14.5 "/>
<path style=" stroke:none;fill-rule:nonzero;fill:rgb(18.823529%,3.137255%,30.588235%);fill-opacity:1;" d="M 15.136719 28.984375 C 22.847656 28.652344 29 22.292969 29 14.5 C 29 14.445312 29 14.386719 28.996094 14.332031 L 18.933594 4.265625 L 8.171875 15.515625 L 14.152344 21.492188 L 11.394531 25.242188 Z M 15.136719 28.984375 "/>
<path style=" stroke:none;fill-rule:nonzero;fill:rgb(100%,100%,100%);fill-opacity:1;" d="M 18.933594 4.265625 L 18.933594 7.550781 C 18.933594 7.550781 15.164062 7.003906 15.164062 9.433594 L 15.164062 11.867188 L 18.566406 11.867188 L 18.140625 15.574219 L 15.164062 15.574219 L 15.164062 25.242188 L 11.394531 25.242188 L 11.394531 15.574219 L 8.171875 15.515625 L 8.171875 11.867188 L 11.332031 11.867188 L 11.332031 9.070312 C 11.332031 9.070312 11.125 4.910156 15.222656 4.144531 C 16.925781 3.828125 18.933594 4.265625 18.933594 4.265625 Z M 18.933594 4.265625 "/>
<path style=" stroke:none;fill-rule:nonzero;fill:rgb(86.27451%,88.235294%,92.156863%);fill-opacity:1;" d="M 18.933594 7.550781 L 18.933594 4.265625 C 18.933594 4.265625 16.925781 3.828125 15.222656 4.144531 C 14.957031 4.195312 14.710938 4.257812 14.480469 4.332031 L 14.480469 25.242188 L 15.164062 25.242188 L 15.164062 15.574219 L 18.140625 15.574219 L 18.566406 11.867188 L 15.164062 11.867188 C 15.164062 11.867188 15.164062 11.867188 15.164062 9.433594 C 15.164062 7.003906 18.933594 7.550781 18.933594 7.550781 Z M 18.933594 7.550781 "/>
</g>
</svg>
