<?xml version="1.0"?>
<svg xmlns="http://www.w3.org/2000/svg" xmlns:xlink="http://www.w3.org/1999/xlink" version="1.1" id="Capa_1" x="0px" y="0px" viewBox="0 0 487.622 487.622" style="enable-background:new 0 0 487.622 487.622;" xml:space="preserve" width="512px" height="512px" class=""><g transform="matrix(-1 1.10218e-15 1.10218e-15 1 487.622 0)"><g>
	<g>
		<circle style="fill:#C1A0D9" cx="243.811" cy="243.811" r="243.811" data-original="#CF6F55" class="active-path" data-old_color="#CF6F55"/>
		<path style="fill:#A883C3" d="M479.621,305.946L169.686,119.431V368.19L332.61,470.937    C404.49,442.813,459.75,381.554,479.621,305.946z" data-original="#C06046" class="" data-old_color="#C06046"/>
		<polygon style="fill:#31106B" points="375.699,243.811 169.686,368.19 169.686,119.431   " data-original="#FFFFFF" class="" data-old_color="#FFFFFF"/>
	</g>
</g></g> </svg>
